05 Converting to and from non-tidy formats
…
data("acq")
acq
#> <<VCorpus>>
#> Metadata:  corpus specific: 0, document level (indexed): 0
#> Content:  documents: 50

acq[[1]]
#> <<PlainTextDocument>>
#> Metadata:  15
#> Content:  chars: 1287

acq_td <- tidy(acq)
acq_td
#> # A tibble: 50 x 16
#>    author  datetimestamp       description heading  id    language origin topics
#>    <chr>   <dttm>              <chr>       <chr>    <chr> <chr>    <chr>  <chr> 
#>  1 <NA>    1987-02-26 15:18:06 ""          COMPUTE 10    en       Reute YES   
#>  2 <NA>    1987-02-26 15:19:15 ""          OHIO MA 12    en       Reute YES   
#>  3 <NA>    1987-02-26 15:49:56 ""          MCLEAN' 44    en       Reute YES   
#>  4 By Cal 1987-02-26 15:51:17 ""          CHEMLAW 45    en       Reute YES   
#>  5 <NA>    1987-02-26 16:08:33 ""          <COFAB  68    en       Reute YES   
#>  6 <NA>    1987-02-26 16:32:37 ""          INVESTM 96    en       Reute YES   
#>  7 By Pat 1987-02-26 16:43:13 ""          AMERICA 110   en       Reute YES   
#>  8 <NA>    1987-02-26 16:59:25 ""          HONG KO 125   en       Reute YES   
#>  9 <NA>    1987-02-26 17:01:28 ""          LIEBERT 128   en       Reute YES   
#> 10 <NA>    1987-02-26 17:08:27 ""          GULF AP 134   en       Reute YES   
#> #  with 40 more rows, and 8 more variables: lewissplit <chr>, cgisplit <chr>,
#> #   oldid <chr>, places <named list>, people <lgl>, orgs <lgl>,
#> #   exchanges <lgl>, text <chr>
…
