07 Case study: comparing Twitter archives
…
2016-01-01
Julia
day
1
437
43

The count column tells us how many times that person used that word in that time bin, the time_total column tells us how many words that person used during that time bin, and the word_total column tells us how many times that person used that word over the whole year.

nested_data <- words_by_time %>%
    nest(-word,-person)

nested_data
#> # A tibble: 32 x 3
#>    person word    data             
#>    <chr>  <chr>   <list>           
#>  1 David  #rstats <tibble [12  4]>
#>  2 David  broom   <tibble [10  4]>
#>  3 David  data    <tibble [12  4]>
#>  4 David  ggplot2 <tibble [10  4]>
#>  5 David  time    <tibble [12  4]>
#>  6 David  tweets  <tibble [8  4]> 
#>  7 Julia  #rstats <tibble [12  4]>
#>  8 Julia  blog    <tibble [10  4]>
#>  9 Julia  data    <tibble [12  4]>
#> 10 Julia  day     <tibble [12  4]>
#> #  with 22 more rows

nested_models <- nested_data %>%
    mutate(models = map(data, ~ glm(cbind(count, time_total) ~ time_floor, ., family = "binomial")
    ))

nested_models
#> # A tibble: 32 x 4
#>    person word    data              models
#>    <chr>  <chr>   <list>            <list>
#>  1 David  #rstats <tibble [12  4]> <glm> 
#>  2 David  broom   <tibble [10  4]> <glm> 
#>  3 David  data    <tibble [12  4]> <glm> 
#>  4 David  ggplot2 <tibble [10  4]> <glm> 
#>  5 David  time    <tibble [12  4]> <glm> 
#>  6 David  tweets  <tibble [8  4]>  <glm> 
#>  7 Julia  #rstats <tibble [12  4]> <glm> 
#>  8 Julia  blog    <tibble [10  4]> <glm> 
#>  9 Julia  data    <tibble [12  4]> <glm> 
#> 10 Julia  day     <tibble [12  4]> <glm> 
#> #  with 22 more rows
…
